<svg width="16" height="16" viewBox="0 0 16 16" fill="none" xmlns="http://www.w3.org/2000/svg">
<path d="M11.0302 8.01204C11.4485 3.94129 9.12802 1.33428 7.82256 0.5C7.90396 0.867869 7.93346 1.39212 7.83658 1.9855C7.28267 5.37829 2.84375 7.06229 2.84375 10.5C2.84375 13.9615 6.09913 15.5 8.20554 15.5C13.8871 15.5 13.695 9.08974 12.4184 6.65385C12.2531 7.40066 11.9319 7.95725 11.6109 8.34175C11.3608 8.64134 10.9903 8.40025 11.0302 8.01204Z" fill="#E91800"/>
<path d="M9.95307 10.2484C10.0693 7.77031 8.68228 6.18032 7.88708 5.65625C7.93794 5.89325 7.95696 6.22916 7.89931 6.60981C7.5634 8.82761 4.71875 9.97565 4.71875 12.2188C4.71875 14.4904 6.79035 15.5 8.1308 15.5C11.7463 15.5 11.6241 11.2933 10.8117 9.69471C10.7412 10.0234 10.626 10.2959 10.4962 10.5158C10.2971 10.8532 9.93472 10.6397 9.95307 10.2484Z" fill="#FF8623"/>
<path d="M9.11104 12.0847C9.02544 10.9053 8.34387 10.1442 7.93548 9.875C7.96454 10.0104 7.97541 10.2024 7.94246 10.4199C7.75051 11.6872 6.125 12.3432 6.125 13.625C6.125 14.9231 7.30877 15.5 8.07474 15.5C10.1408 15.5 10.0709 13.0962 9.60668 12.1827C9.60025 12.2127 9.59316 12.2419 9.5855 12.2702C9.48329 12.6484 9.13939 12.4754 9.11104 12.0847Z" fill="#FFD34B"/>
</svg>
